module gitlab.com/gitlab-org/security-products/analyzers/common/v2

require (
	github.com/cpuguy83/go-md2man/v2 v2.0.0 // indirect
	github.com/kr/text v0.2.0 // indirect
	github.com/niemeyer/pretty v0.0.0-20200227124842-a10e7caefd8e // indirect
	github.com/sirupsen/logrus v1.6.0
	github.com/stretchr/testify v1.6.1 // indirect
	github.com/urfave/cli/v2 v2.3.0
	gitlab.com/gitlab-org/security-products/analyzers/ruleset v1.0.0
	golang.org/x/sys v0.0.0-20200915084602-288bc346aa39 // indirect
	gopkg.in/check.v1 v1.0.0-20200902074654-038fdea0a05b // indirect
	gopkg.in/yaml.v3 v3.0.0-20200615113413-eeeca48fe776 // indirect
)

go 1.13
